Library\Bee\artifacts\movedfrom\Unity.Barracuda.ref.dll_11440298873734863993.movedfrom
Library\Bee\artifacts\movedfrom\UnityEditor.UI.ref.dll_5519394401220875509.movedfrom
Library\Bee\artifacts\movedfrom\UnityEngine.UI.ref.dll_648142665722821984.movedfrom
Library\Bee\artifacts\movedfrom\Unity.Burst.Unsafe.dll_13694266007549343460.movedfrom
Library\Bee\artifacts\movedfrom\UnityEditor.Graphs.dll_12616629301953015887.movedfrom
Library\Bee\artifacts\movedfrom\UnityEditor.CoreModule.dll_9888933061569708829.movedfrom
Library\Bee\artifacts\movedfrom\UnityEditor.DeviceSimulatorModule.dll_6446696894011285556.movedfrom
Library\Bee\artifacts\movedfrom\UnityEditor.dll_1333722926060067816.movedfrom
Library\Bee\artifacts\movedfrom\UnityEditor.GraphViewModule.dll_17445928835659705625.movedfrom
Library\Bee\artifacts\movedfrom\UnityEditor.PackageManagerUIModule.dll_11694361853933338169.movedfrom
Library\Bee\artifacts\movedfrom\UnityEditor.QuickSearchModule.dll_10776863478601621979.movedfrom
Library\Bee\artifacts\movedfrom\UnityEditor.SceneTemplateModule.dll_2017419354803075516.movedfrom
Library\Bee\artifacts\movedfrom\UnityEditor.UIBuilderModule.dll_5090493595664131661.movedfrom
Library\Bee\artifacts\movedfrom\UnityEditor.UIElementsModule.dll_16371189950288744249.movedfrom
Library\Bee\artifacts\movedfrom\UnityEditor.UIElementsSamplesModule.dll_17878790389406959812.movedfrom
Library\Bee\artifacts\movedfrom\UnityEditor.UIServiceModule.dll_9193854922669258343.movedfrom
Library\Bee\artifacts\movedfrom\UnityEditor.UnityConnectModule.dll_17680965221745410131.movedfrom
Library\Bee\artifacts\movedfrom\UnityEngine.AccessibilityModule.dll_5666860724148707673.movedfrom
Library\Bee\artifacts\movedfrom\UnityEngine.ARModule.dll_17115179757829811866.movedfrom
Library\Bee\artifacts\movedfrom\UnityEngine.AudioModule.dll_2773954851161955057.movedfrom
Library\Bee\artifacts\movedfrom\UnityEngine.ClusterInputModule.dll_8429574423252800281.movedfrom
Library\Bee\artifacts\movedfrom\UnityEngine.ClusterRendererModule.dll_6855612352656780728.movedfrom
Library\Bee\artifacts\movedfrom\UnityEngine.CoreModule.dll_12420188404111633992.movedfrom
Library\Bee\artifacts\movedfrom\UnityEngine.CrashReportingModule.dll_297820719457910496.movedfrom
Library\Bee\artifacts\movedfrom\UnityEngine.dll_4982842419248523469.movedfrom
Library\Bee\artifacts\movedfrom\UnityEngine.DSPGraphModule.dll_9846908768009871238.movedfrom
Library\Bee\artifacts\movedfrom\UnityEngine.GameCenterModule.dll_10072398919499263744.movedfrom
Library\Bee\artifacts\movedfrom\UnityEngine.GIModule.dll_14721943210393368555.movedfrom
Library\Bee\artifacts\movedfrom\UnityEngine.GridModule.dll_9930009994576823359.movedfrom
Library\Bee\artifacts\movedfrom\UnityEngine.HotReloadModule.dll_4749782508437871937.movedfrom
Library\Bee\artifacts\movedfrom\UnityEngine.ImageConversionModule.dll_14633889318641853868.movedfrom
Library\Bee\artifacts\movedfrom\UnityEngine.IMGUIModule.dll_6836095503834050258.movedfrom
Library\Bee\artifacts\movedfrom\UnityEngine.InputLegacyModule.dll_7691420614430985406.movedfrom
Library\Bee\artifacts\movedfrom\UnityEngine.InputModule.dll_10156981576017313685.movedfrom
Library\Bee\artifacts\movedfrom\UnityEngine.JSONSerializeModule.dll_12591014567032291811.movedfrom
Library\Bee\artifacts\movedfrom\UnityEngine.LocalizationModule.dll_12918759807911953938.movedfrom
Library\Bee\artifacts\movedfrom\UnityEngine.PerformanceReportingModule.dll_12851317681974397703.movedfrom
Library\Bee\artifacts\movedfrom\UnityEngine.ProfilerModule.dll_13086360076118201714.movedfrom
Library\Bee\artifacts\movedfrom\UnityEngine.RuntimeInitializeOnLoadManagerInitializerModule.dll_11656504837319528989.movedfrom
Library\Bee\artifacts\movedfrom\UnityEngine.SharedInternalsModule.dll_5703601819091329276.movedfrom
Library\Bee\artifacts\movedfrom\UnityEngine.SpriteMaskModule.dll_8427585118964008058.movedfrom
Library\Bee\artifacts\movedfrom\UnityEngine.SpriteShapeModule.dll_17499154752342527703.movedfrom
Library\Bee\artifacts\movedfrom\UnityEngine.StreamingModule.dll_8446163899427993853.movedfrom
Library\Bee\artifacts\movedfrom\UnityEngine.SubstanceModule.dll_5900245040109008651.movedfrom
Library\Bee\artifacts\movedfrom\UnityEngine.TextCoreModule.dll_2022311789057146485.movedfrom
Library\Bee\artifacts\movedfrom\UnityEngine.TextRenderingModule.dll_17429885594122464826.movedfrom
Library\Bee\artifacts\movedfrom\UnityEngine.TLSModule.dll_15080218550241773110.movedfrom
Library\Bee\artifacts\movedfrom\UnityEngine.UIModule.dll_3424475665021310333.movedfrom
Library\Bee\artifacts\movedfrom\UnityEngine.UNETModule.dll_4540656973419307969.movedfrom
Library\Bee\artifacts\movedfrom\UnityEngine.UnityConnectModule.dll_16338756257679917310.movedfrom
Library\Bee\artifacts\movedfrom\UnityEngine.UnityCurlModule.dll_17563617649557926828.movedfrom
Library\Bee\artifacts\movedfrom\UnityEngine.UnityTestProtocolModule.dll_12961622598768156186.movedfrom
Library\Bee\artifacts\movedfrom\UnityEngine.VFXModule.dll_5919501560028082083.movedfrom
Library\Bee\artifacts\movedfrom\UnityEngine.VirtualTexturingModule.dll_1247815035438903014.movedfrom
Library\Bee\artifacts\movedfrom\UnityEditor.WindowsStandalone.Extensions.dll_12214739626054374739.movedfrom